Report on COVID19 Data
…
Data used

confirmed glocal cases from https://github.com/CSSEGISandData/COVID-19/raw/master/csse_covid_19_data/csse_covid_19_time_series/:

global_cases

## # A tibble: 204,400 x 4
##    `Province/State` `Country/Region` date    cases
##    <chr>            <chr>            <chr>   <dbl>
##  1 <NA>             Afghanistan      1/22/20     0
##  2 <NA>             Afghanistan      1/23/20     0
##  3 <NA>             Afghanistan      1/24/20     0
##  4 <NA>             Afghanistan      1/25/20     0
##  5 <NA>             Afghanistan      1/26/20     0
##  6 <NA>             Afghanistan      1/27/20     0
##  7 <NA>             Afghanistan      1/28/20     0
##  8 <NA>             Afghanistan      1/29/20     0
##  9 <NA>             Afghanistan      1/30/20     0
## 10 <NA>             Afghanistan      1/31/20     0
## # ... with 204,390 more rows
summary(global_cases)

##  Province/State     Country/Region         date               cases         
##  Length:204400      Length:204400      Length:204400      Min.   :       0  
##  Class :character   Class :character   Class :character   1st Qu.:     201  
##  Mode  :character   Mode  :character   Mode  :character   Median :    4075  
##                                                           Mean   :  396335  
##                                                           3rd Qu.:   81812  
##                                                           Max.   :69308111

Global deaths from https://github.com/CSSEGISandData/COVID-19/raw/master/csse_covid_19_data/csse_covid_19_time_series/:

global_deaths

## # A tibble: 204,400 x 4
##    `Province/State` `Country/Region` date    deaths
##    <chr>            <chr>            <chr>    <dbl>
##  1 <NA>             Afghanistan      1/22/20      0
##  2 <NA>             Afghanistan      1/23/20      0
##  3 <NA>             Afghanistan      1/24/20      0
##  4 <NA>             Afghanistan      1/25/20      0
##  5 <NA>             Afghanistan      1/26/20      0
##  6 <NA>             Afghanistan      1/27/20      0
##  7 <NA>             Afghanistan      1/28/20      0
##  8 <NA>             Afghanistan      1/29/20      0
##  9 <NA>             Afghanistan      1/30/20      0
## 10 <NA>             Afghanistan      1/31/20      0
## # ... with 204,390 more rows
summary(global_deaths)

##  Province/State     Country/Region         date               deaths      
##  Length:204400      Length:204400      Length:204400      Min.   :     0  
##  Class :character   Class :character   Class :character   1st Qu.:     2  
##  Mode  :character   Mode  :character   Mode  :character   Median :    59  
##                                                           Mean   :  8568  
##                                                           3rd Qu.:  1393  
##                                                           Max.   :860247

confirmed US cases from https://github.com/CSSEGISandData/COVID-19/raw/master/csse_covid_19_data/csse_covid_19_time_series/:

us_cases

## # A tibble: 2,439,660 x 3
##    Combined_Key         date    cases
##    <chr>                <chr>   <dbl>
##  1 Autauga, Alabama, US 1/22/20     0
##  2 Autauga, Alabama, US 1/23/20     0
##  3 Autauga, Alabama, US 1/24/20     0
##  4 Autauga, Alabama, US 1/25/20     0
##  5 Autauga, Alabama, US 1/26/20     0
##  6 Autauga, Alabama, US 1/27/20     0
##  7 Autauga, Alabama, US 1/28/20     0
##  8 Autauga, Alabama, US 1/29/20     0
##  9 Autauga, Alabama, US 1/30/20     0
## 10 Autauga, Alabama, US 1/31/20     0
## # ... with 2,439,650 more rows
summary(us_cases)

##  Combined_Key           date               cases        
##  Length:2439660     Length:2439660     Min.   :      0  
##  Class :character   Class :character   1st Qu.:     67  
##  Mode  :character   Mode  :character   Median :    942  
##                                        Mean   :   6649  
##                                        3rd Qu.:   3766  
##                                        Max.   :2385721

US deaths from https://github.com/CSSEGISandData/COVID-19/raw/master/csse_covid_19_data/csse_covid_19_time_series/:

us_deaths

## # A tibble: 2,439,660 x 3
##    Combined_Key         date    deaths
##    <chr>                <chr>    <dbl>
##  1 Autauga, Alabama, US 1/22/20      0
##  2 Autauga, Alabama, US 1/23/20      0
##  3 Autauga, Alabama, US 1/24/20      0
##  4 Autauga, Alabama, US 1/25/20      0
##  5 Autauga, Alabama, US 1/26/20      0
##  6 Autauga, Alabama, US 1/27/20      0
##  7 Autauga, Alabama, US 1/28/20      0
##  8 Autauga, Alabama, US 1/29/20      0
##  9 Autauga, Alabama, US 1/30/20      0
## 10 Autauga, Alabama, US 1/31/20      0
## # ... with 2,439,650 more rows
summary(us_deaths)

##  Combined_Key           date               deaths       
##  Length:2439660     Length:2439660     Min.   :    0.0  
##  Class :character   Class :character   1st Qu.:    1.0  
##  Mode  :character   Mode  :character   Median :   16.0  
##                                        Mean   :  118.1  
##                                        3rd Qu.:   69.0  
##                                        Max.   :28282.0

Global recovered from https://github.com/CSSEGISandData/COVID-19/raw/master/csse_covid_19_data/csse_covid_19_time_series/:

global_recovered

## # A tibble: 193,450 x 4
##    `Province/State` `Country/Region` date    recovered
##    <chr>            <chr>            <chr>       <dbl>
##  1 <NA>             Afghanistan      1/22/20         0
##  2 <NA>             Afghanistan      1/23/20         0
##  3 <NA>             Afghanistan      1/24/20         0
##  4 <NA>             Afghanistan      1/25/20         0
##  5 <NA>             Afghanistan      1/26/20         0
##  6 <NA>             Afghanistan      1/27/20         0
##  7 <NA>             Afghanistan      1/28/20         0
##  8 <NA>             Afghanistan      1/29/20         0
##  9 <NA>             Afghanistan      1/30/20         0
## 10 <NA>             Afghanistan      1/31/20         0
## # ... with 193,440 more rows
…
